{
  "keys": ["productName", "proposalNumber", "proposerName", "supervisorName", "adviserName", "approvalDate", "faAdminApprovalRemarksText"],
  "email": {
    "subject": "Case proposalNumber, productName proposerName is approved by FA Firm",
    "template": "Dear adviserName,<br /><br />The case proposalNumber for proposerName has been approved by supervisorName on approvalDate. <br /><br /><b>Approval Remarks: </b><br/> faAdminApprovalRemarksText <br /><br />AXA Insurance Pte Ltd<p><img src='cid:part1.1234.56789' height='70' width='75'></p>"
  }
}
