{
  "keys": ["productName", "proposalNumber", "proposerName", "supervisorName", "approvalDate", "adviserName", "approvalRemarksText"],
  "sms": "productName proposalNumber proposerName has been approved by supervisorName on approvalDate. Please refer to email for more information.",
  "email": {
    "subject": "Case proposalNumber, productName approved",
    "template": "Dear adviserName,<br /><br />The case proposalNumber for proposerName has been approved by supervisorName on approvalDate.<br /><br /><b>Approval Remarks: </b>approvalRemarksText<br /><br />AXA Insurance Pte Ltd<p><img src='cid:part1.1234.56789' height='70' width='75'></p>"
  }
}
