{
  "keys": ["caseNumber", "productName", "agentName", "proposerName", "submissionDate", "expiryDate"],
  "sms": "",
  "email": {
    "subject": "Pending Document: caseNumber, productName",
    "template": "Dear agentName,<br /><br />caseNumber for proposerName submitted on submissionDate is pending for further document(s).<br />Please view the workbench for more details and upload necessary document(s) so that the case is approved before expiryDate.<br /><br />AXA Insurance Pte Ltd<p><img src='cid:part1.1234.56789' height='70' width='75'></p>"
  }
}
