{
  "keys": ["productName", "proposalNumber", "proposerName", "supervisorName", "rejectionDate", "adviserName", "reasonForRejection", "rejectionCommentText"],
  "email": {
    "subject": "Case proposalNumber, productName rejected",
    "template": "Dear FA Firm,<br /><br />This is to notify you that case proposalNumber for proposerName has been rejected by supervisorName on rejectionDate.<br /><br /><b>Reason for Rejection: </b>reasonForRejection<br />rejectionCommentText<br /><br />AXA Insurance Pte Ltd<p><img src='cid:part1.1234.56789' height='70' width='75'></p>"
  }
}
